@startuml VoIP開始

actor Webブラウザ as client
participant "CCM GUI\n(Web)" as web
participant "CCM GUI\n(WebSocket)" as ws
participant "CCM SDK\n(IPC)" as ccm

' 各サーバーはすべて起動状態から開始
activate client
activate web
activate ws
activate ccm

alt Tx一覧から１つの NetworkClient が選択されている & VoIPタブが表示されている

client ->> ws: VoIP開始
note right
    {
        "command": "StartVoIP",
        "type": "request",
        "data": {
            "ID": "NC_1",
            "client_type": "primary",   // primary or secondary
            "destination_address": "...",   // address (client_type : primary の場合のみ指定)
            "destination_port": 11500,  // 1 ～ 65536 (client_type : primary の場合のみ指定)
            "receiving_port": 11500,    // 1 ～ 65536 (client_type : secondary の場合のみ指定)
            "frame_length": {"IntercomTx": 60000,  "IntercomRx": 40000},    // (client_type : primary の場合)
                                                                            // (client_type : secondary の場合は {"IntercomTx": 40000,  "IntercomRx": 60000}
            "cipher_key": {
                "IntercomTx": "82a71940eeb0494d15ca1743ac2edc139c8e2533f4059ad124df9001d748e6ca0edfb09a7978376148fa10cca82c",
                "IntercomRx": "4a122afd7aeee03c954d7a04b39824a4479d6bb8718132010edfe39e2ddead8df2c2bdeff5e4ab42063851d485d6"
            },
            // client_type : secondary の場合
            //"cipher_key": {
            //    "IntercomTx": "4a122afd7aeee03c954d7a04b39824a4479d6bb8718132010edfe39e2ddead8df2c2bdeff5e4ab42063851d485d6", 
            //    "IntercomRx": "82a71940eeb0494d15ca1743ac2edc139c8e2533f4059ad124df9001d748e6ca0edfb09a7978376148fa10cca82c"
            //}            
            //            
            "ssrc": {
                "IntercomTx": "5bbf7159", 
                "IntercomRx": "ceaa4f6b"
            }
            // client_type : secondary の場合
            // "ssrc": {
            //    "IntercomTx": "ceaa4f6b", 
            //    "IntercomRx": "5bbf7159"
            //}
            //
        }
    }
end note

ws ->> ccm

ccm -> ccm : StartVoIP(ID, ...)

ws <<-- ccm
note left
    {
        "command": "StartVoIP",
        "type": "response",
        "data": {
            "ID": "NC_1",
            "error": {
                "code": 0,
                "message": ""
            }
        }
    }
end note

client <<-- ws

client -> client : 開始ボタンを無効化

client -> client : Intercom(VoIP) のステータスが "33" になった場合、停止ボタンを有効化

end alt

@enduml