@startuml ストリーミング停止(Rx)

actor Webブラウザ as client
participant "CCM GUI\n(Web)" as web
participant "CCM GUI\n(WebSocket)" as ws
participant "CCM SDK\n(IPC)" as ccm

' 各サーバーはすべて起動状態から開始
activate client
activate web
activate ws
activate ccm

alt Streaming停止ボタンが有効化になってる

client -> client : Streaming受信開始ボタンが有効化

client ->> ws: ストリーミング停止
note right
    {
        "command": "StopStreamingReceive",
        "type": "request",
        "data": {
            "ID": "NC_1"
        }
    }
end note

ws ->> ccm

ccm -> ccm : StopStreamingReceive(ID)

ws <<-- ccm
note left
    {
        "command": "StopStreamingReceive",
        "type": "response",
        "data": {
            "ID": "NC_1",
            "error": {
                "code": 0,
                "message": ""
            }
        }
    }
end note

client <<-- ws

end alt

@enduml